<?xml version="1.0" encoding="utf-8"?>
<!-- Generator: Adobe Illustrator 16.0.4, SVG Export Plug-In . SVG Version: 6.00 Build 0)  -->
<!DOCTYPE svg PUBLIC "-//W3C//DTD SVG 1.1//EN" "http://www.w3.org/Graphics/SVG/1.1/DTD/svg11.dtd">
<svg version="1.1"
	 id="svg2" xmlns:dc="http://purl.org/dc/elements/1.1/" xmlns:cc="http://creativecommons.org/ns#" xmlns:rdf="http://www.w3.org/1999/02/22-rdf-syntax-ns#" xmlns:svg="http://www.w3.org/2000/svg"
	 xmlns="http://www.w3.org/2000/svg" xmlns:xlink="http://www.w3.org/1999/xlink" x="0px" y="0px" width="32px" height="34.666px"
	 viewBox="0 0 32 34.666" enable-background="new 0 0 32 34.666" xml:space="preserve">
<g id="layer1" transform="translate(-420,-397.60029)">
	<g id="text3336">
		<g id="path3336">
			<path fill="#212121" d="M420.35,431.918v-0.984c0-0.278,0.089-0.503,0.272-0.687c0.198-0.199,0.431-0.296,0.711-0.296h29.333
				c0.275,0,0.497,0.095,0.678,0.288c0.215,0.2,0.307,0.416,0.307,0.694v0.984H420.35z M424.406,426.584l3.653-2.666h-1.393
				c-0.283,0-0.519-0.092-0.722-0.28c-0.17-0.184-0.261-0.42-0.261-0.704c0-0.278,0.089-0.503,0.271-0.688
				c0.198-0.197,0.432-0.295,0.712-0.295h18.667c0.278,0,0.493,0.092,0.679,0.289c0.212,0.199,0.304,0.415,0.304,0.693
				c0,0.279-0.098,0.513-0.297,0.714c-0.183,0.182-0.407,0.271-0.686,0.271h-1.428l3.68,2.666H424.406z M428.953,418.585
				c-0.989-1.396-1.753-2.903-2.274-4.48c-0.519-1.644-0.783-3.214-0.783-4.663c0-1.441,0.287-2.868,0.854-4.24
				c0.569-1.396,1.327-2.617,2.255-3.63c0.942-1.011,2.041-1.848,3.264-2.487c1.111-0.585,2.247-0.939,3.382-1.052v2.444l8,4.294
				v3.146h-8v0.35c0,1.048,0.168,2.057,0.5,2.998c0.352,0.942,0.817,1.797,1.383,2.548c0.581,0.726,1.154,1.38,1.709,1.952
				c0.578,0.56,1.2,1.156,1.877,1.796c0.407,0.378,0.752,0.72,1.032,1.024H428.953z"/>
			<path d="M435.3,398.428v1.838v0.419l0.369,0.198l7.631,4.097v2.586H436h-0.7v0.7c0,1.088,0.175,2.136,0.524,3.126
				c0.361,0.967,0.843,1.852,1.441,2.646c0.582,0.727,1.163,1.39,1.741,1.985c0.57,0.553,1.193,1.15,1.877,1.796
				c0.154,0.144,0.301,0.281,0.437,0.414h-12.185c-0.918-1.326-1.632-2.75-2.122-4.231c-0.509-1.614-0.768-3.148-0.768-4.562
				c0-1.395,0.278-2.777,0.828-4.109c0.552-1.357,1.289-2.542,2.184-3.52c0.917-0.983,1.984-1.797,3.174-2.419
				C433.376,398.896,434.338,398.572,435.3,398.428 M445.334,422.301c0.18,0,0.307,0.053,0.455,0.209
				c0.124,0.116,0.177,0.243,0.177,0.423c0,0.188-0.06,0.332-0.191,0.464c-0.118,0.118-0.254,0.17-0.44,0.17h-0.348h-2.159
				l1.748,1.267l1.932,1.399h-21.027l1.919-1.4l1.734-1.266h-2.146h-0.32c-0.187,0-0.332-0.052-0.465-0.169
				c-0.116-0.132-0.168-0.277-0.168-0.465c0-0.187,0.052-0.322,0.167-0.438c0.134-0.134,0.278-0.193,0.466-0.193H445.334
				 M450.666,430.301c0.181,0,0.307,0.053,0.457,0.211c0.124,0.115,0.177,0.241,0.177,0.421v0.634h-30.6v-0.634
				c0-0.186,0.052-0.321,0.169-0.439c0.133-0.133,0.276-0.192,0.463-0.192H450.666 M436,397.654
				c-1.316,0.071-2.614,0.445-3.894,1.12c-1.262,0.659-2.382,1.512-3.36,2.561c-0.96,1.048-1.734,2.293-2.32,3.733
				c-0.587,1.422-0.88,2.88-0.88,4.373s0.267,3.084,0.8,4.773c0.552,1.67,1.36,3.245,2.427,4.72h14.133
				c-0.338-0.444-0.854-0.986-1.547-1.628c-0.676-0.639-1.297-1.234-1.866-1.785c-0.552-0.569-1.111-1.209-1.681-1.92
				c-0.551-0.729-0.994-1.547-1.333-2.453c-0.32-0.907-0.48-1.867-0.48-2.881h8v-3.706l-8-4.294V397.654L436,397.654z
				 M445.334,421.601h-18.667c-0.374,0-0.694,0.132-0.961,0.398c-0.248,0.25-0.373,0.562-0.373,0.934
				c0,0.373,0.124,0.693,0.373,0.961c0.267,0.248,0.587,0.373,0.96,0.373h0.32l-3.653,2.666h25.333l-3.68-2.666h0.348
				c0.373,0,0.684-0.125,0.934-0.373c0.266-0.268,0.398-0.588,0.398-0.961c0-0.372-0.132-0.684-0.398-0.934
				C446.018,421.734,445.707,421.601,445.334,421.601L445.334,421.601z M450.666,429.601h-29.333c-0.373,0-0.693,0.132-0.959,0.398
				c-0.249,0.25-0.374,0.562-0.374,0.934v1.334h32v-1.334c0-0.372-0.132-0.684-0.4-0.934
				C451.352,429.734,451.04,429.601,450.666,429.601L450.666,429.601z"/>
		</g>
	</g>
</g>
</svg>
