<?xml version="1.0" encoding="utf-8"?>
<!-- Generator: Adobe Illustrator 16.0.4, SVG Export Plug-In . SVG Version: 6.00 Build 0)  -->
<!DOCTYPE svg PUBLIC "-//W3C//DTD SVG 1.1//EN" "http://www.w3.org/Graphics/SVG/1.1/DTD/svg11.dtd">
<svg version="1.1"
	 id="svg2" xmlns:dc="http://purl.org/dc/elements/1.1/" xmlns:cc="http://creativecommons.org/ns#" xmlns:rdf="http://www.w3.org/1999/02/22-rdf-syntax-ns#" xmlns:svg="http://www.w3.org/2000/svg"
	 xmlns="http://www.w3.org/2000/svg" xmlns:xlink="http://www.w3.org/1999/xlink" x="0px" y="0px" width="32px" height="34.666px"
	 viewBox="0 0 32 34.666" enable-background="new 0 0 32 34.666" xml:space="preserve">
<g id="layer1" transform="translate(-420,-397.60029)">
	<g id="text3336">
		<g id="path4269">
			<path fill="#fafafa" d="M420.35,431.918v-0.984c0-0.278,0.089-0.503,0.272-0.687c0.198-0.199,0.431-0.296,0.711-0.296h29.333
				c0.275,0,0.497,0.095,0.678,0.288c0.215,0.2,0.307,0.416,0.307,0.694v0.984H420.35z M424.406,426.584l3.653-2.666h-1.393
				c-0.283,0-0.519-0.092-0.722-0.28c-0.17-0.184-0.261-0.42-0.261-0.704c0-0.278,0.089-0.503,0.271-0.688
				c0.198-0.197,0.432-0.295,0.712-0.295h18.667c0.278,0,0.493,0.092,0.679,0.289c0.212,0.199,0.304,0.415,0.304,0.693
				c0,0.279-0.098,0.513-0.297,0.714c-0.183,0.182-0.407,0.271-0.686,0.271h-1.428l3.68,2.666H424.406z M432.228,418.584
				c0.594-1.737,0.896-3.26,0.896-4.531c0-0.949,0.165-1.649,0.49-2.083c0.323-0.425,0.729-0.633,1.24-0.633h2.426
				c0.49,0,0.877,0.206,1.184,0.628c0.349,0.442,0.521,1.141,0.521,2.088c0,1.274,0.3,2.796,0.894,4.531H432.228z M436,410.076
				c-1.248,0-2.284-0.429-3.166-1.311c-0.883-0.882-1.312-1.918-1.312-3.166c0-1.247,0.429-2.283,1.312-3.165
				c0.882-0.883,1.917-1.312,3.166-1.312s2.283,0.429,3.166,1.312c0.882,0.88,1.311,1.916,1.311,3.165
				c0,1.249-0.429,2.284-1.311,3.166C438.283,409.647,437.248,410.076,436,410.076z"/>
			<path d="M436,401.473c1.15,0,2.104,0.396,2.919,1.209c0.812,0.812,1.207,1.766,1.207,2.917c0,1.151-0.395,2.105-1.208,2.918
				c-0.813,0.813-1.768,1.208-2.918,1.208c-1.151,0-2.105-0.395-2.918-1.208c-0.813-0.813-1.209-1.768-1.209-2.918
				s0.396-2.104,1.209-2.918C433.895,401.868,434.85,401.473,436,401.473 M437.279,411.687c0.38,0,0.657,0.149,0.917,0.507
				c0.286,0.362,0.438,1.005,0.438,1.859c0,1.197,0.256,2.599,0.76,4.18h-6.682c0.505-1.583,0.761-2.986,0.761-4.18
				c0-0.859,0.145-1.507,0.418-1.87c0.26-0.343,0.556-0.496,0.962-0.496h1.2H437.279 M445.334,422.301
				c0.18,0,0.307,0.053,0.455,0.209c0.124,0.116,0.177,0.243,0.177,0.423c0,0.188-0.06,0.332-0.191,0.464
				c-0.118,0.118-0.254,0.17-0.44,0.17h-0.348h-2.159l1.748,1.267l1.932,1.399h-21.027l1.919-1.4l1.734-1.266h-2.146h-0.32
				c-0.187,0-0.332-0.052-0.465-0.169c-0.116-0.132-0.168-0.277-0.168-0.465c0-0.187,0.052-0.322,0.167-0.438
				c0.134-0.134,0.278-0.193,0.466-0.193H445.334 M450.666,430.301c0.181,0,0.307,0.053,0.457,0.211
				c0.124,0.115,0.177,0.241,0.177,0.421v0.634h-30.6v-0.634c0-0.186,0.052-0.321,0.169-0.439c0.133-0.133,0.276-0.192,0.463-0.192
				H450.666 M436,400.773c-1.333,0-2.471,0.472-3.413,1.414c-0.942,0.942-1.414,2.08-1.414,3.413s0.472,2.471,1.414,3.413
				s2.08,1.413,3.413,1.413c1.334,0,2.471-0.471,3.413-1.413s1.413-2.08,1.413-3.413c0-1.334-0.471-2.472-1.413-3.413
				C438.471,401.245,437.334,400.773,436,400.773L436,400.773z M437.279,410.987h-1.226h-1.2c-0.623,0-1.129,0.257-1.52,0.773
				c-0.373,0.497-0.56,1.262-0.56,2.293c0,1.352-0.347,2.978-1.04,4.88h8.64c-0.693-1.902-1.039-3.528-1.039-4.88
				c0-1.031-0.195-1.796-0.588-2.293C438.373,411.245,437.884,410.987,437.279,410.987L437.279,410.987z M445.334,421.601h-18.667
				c-0.374,0-0.694,0.132-0.961,0.398c-0.248,0.25-0.373,0.562-0.373,0.934c0,0.373,0.124,0.693,0.373,0.961
				c0.267,0.248,0.587,0.373,0.96,0.373h0.32l-3.653,2.666h25.333l-3.68-2.666h0.348c0.373,0,0.684-0.125,0.934-0.373
				c0.266-0.268,0.398-0.588,0.398-0.961c0-0.372-0.132-0.684-0.398-0.934C446.018,421.734,445.707,421.601,445.334,421.601
				L445.334,421.601z M450.666,429.601h-29.333c-0.373,0-0.693,0.132-0.959,0.398c-0.249,0.25-0.374,0.562-0.374,0.934v1.334h32
				v-1.334c0-0.372-0.132-0.684-0.4-0.934C451.352,429.734,451.04,429.601,450.666,429.601L450.666,429.601z"/>
		</g>
	</g>
</g>
</svg>
