<?xml version="1.0" encoding="utf-8"?>
<!-- Generator: Adobe Illustrator 16.0.4, SVG Export Plug-In . SVG Version: 6.00 Build 0)  -->
<!DOCTYPE svg PUBLIC "-//W3C//DTD SVG 1.1//EN" "http://www.w3.org/Graphics/SVG/1.1/DTD/svg11.dtd">
<svg version="1.1"
	 id="svg2" xmlns:dc="http://purl.org/dc/elements/1.1/" xmlns:cc="http://creativecommons.org/ns#" xmlns:rdf="http://www.w3.org/1999/02/22-rdf-syntax-ns#" xmlns:svg="http://www.w3.org/2000/svg"
	 xmlns="http://www.w3.org/2000/svg" xmlns:xlink="http://www.w3.org/1999/xlink" x="0px" y="0px" width="32px" height="34.666px"
	 viewBox="0 0 32 34.666" enable-background="new 0 0 32 34.666" xml:space="preserve">
<g id="layer1" transform="translate(-420,-397.60029)">
	<g id="text3336">
		<g id="path4220">
			<path fill="#fafafa" d="M420.35,431.918v-0.984c0-0.278,0.089-0.503,0.272-0.687c0.198-0.199,0.431-0.296,0.711-0.296h29.333
				c0.275,0,0.497,0.095,0.678,0.288c0.215,0.2,0.307,0.416,0.307,0.694v0.984H420.35z M424.41,426.584l6.462-4.699
				c0.09-0.066,0.144-0.171,0.144-0.283v-5.334c0-0.193-0.157-0.35-0.35-0.35h-4c-0.283,0-0.519-0.092-0.722-0.28
				c-0.17-0.184-0.261-0.42-0.261-0.704c0-0.279,0.088-0.503,0.271-0.687c0.199-0.199,0.432-0.296,0.713-0.296h18.667
				c0.278,0,0.493,0.092,0.679,0.289c0.209,0.197,0.304,0.418,0.304,0.694c0,0.279-0.098,0.512-0.297,0.714
				c-0.183,0.181-0.407,0.27-0.686,0.27h-4c-0.193,0-0.35,0.156-0.35,0.35v5.334c0,0.112,0.053,0.217,0.144,0.283l6.462,4.699
				H424.41z M427.083,410.584l-4.65-3.787c-0.598-0.39-0.671-0.602-0.66-0.639c0.022-0.075,0.235-0.207,0.893-0.207h8.747
				c0.104,0,0.202-0.046,0.269-0.125s0.094-0.184,0.076-0.286c-0.049-0.275-0.075-0.476-0.075-0.605c0-0.552,0.119-1.105,0.354-1.65
				h7.923c0.235,0.543,0.354,1.097,0.354,1.65c0,0.13-0.024,0.33-0.074,0.605c-0.019,0.102,0.01,0.207,0.076,0.287
				s0.165,0.125,0.269,0.125h8.747c0.739,0,0.828,0.163,0.828,0.165c0.006,0.025,0.021,0.227-0.646,0.659l-4.603,3.809H427.083z
				 M433.786,399.916c0.066-0.487,0.273-0.906,0.626-1.272c0.451-0.467,0.971-0.693,1.588-0.693c0.614,0,1.124,0.225,1.557,0.689
				c0.372,0.373,0.587,0.791,0.655,1.277H433.786z"/>
			<path d="M436,398.3c0.52,0,0.933,0.184,1.317,0.595c0.204,0.203,0.352,0.425,0.445,0.67h-3.532
				c0.091-0.249,0.235-0.474,0.433-0.679C435.045,398.492,435.482,398.3,436,398.3 M439.726,403.634
				c0.161,0.431,0.239,0.859,0.239,1.3c0,0.05-0.007,0.203-0.067,0.542c-0.037,0.204,0.019,0.414,0.151,0.573
				s0.33,0.251,0.537,0.251h8.747c0.092,0,0.171,0.002,0.238,0.007c-0.065,0.05-0.146,0.108-0.246,0.173
				c-0.022,0.015-0.045,0.031-0.065,0.048l-4.473,3.705h-17.579l-4.554-3.708c-0.02-0.016-0.04-0.03-0.061-0.044
				c-0.097-0.063-0.175-0.119-0.238-0.167c0.083-0.008,0.186-0.013,0.311-0.013h8.747c0.207,0,0.404-0.092,0.537-0.251
				c0.133-0.159,0.189-0.369,0.152-0.573c-0.062-0.348-0.069-0.496-0.069-0.543c0-0.439,0.079-0.868,0.24-1.3H439.726
				 M445.334,414.301c0.18,0,0.306,0.053,0.456,0.21c0.123,0.115,0.176,0.241,0.176,0.422c0,0.187-0.06,0.331-0.191,0.463
				c-0.118,0.118-0.254,0.17-0.44,0.17h-4c-0.387,0-0.7,0.313-0.7,0.7v5.334c0,0.224,0.107,0.435,0.288,0.566l5.592,4.065h-21.028
				l5.592-4.065c0.181-0.132,0.289-0.343,0.289-0.566v-5.334c0-0.387-0.313-0.7-0.7-0.7h-4c-0.187,0-0.332-0.052-0.465-0.168
				c-0.116-0.133-0.168-0.277-0.168-0.465c0-0.187,0.052-0.322,0.168-0.438c0.136-0.136,0.275-0.194,0.466-0.194H445.334
				 M450.666,430.301c0.181,0,0.307,0.053,0.457,0.211c0.124,0.115,0.177,0.241,0.177,0.421v0.634h-30.6v-0.634
				c0-0.186,0.052-0.321,0.169-0.439c0.133-0.133,0.276-0.192,0.463-0.192H450.666 M436,397.6c-0.711,0-1.324,0.267-1.84,0.8
				c-0.498,0.516-0.746,1.138-0.748,1.866h5.174c-0.001-0.728-0.257-1.35-0.773-1.866C437.314,397.867,436.711,397.6,436,397.6
				L436,397.6z M440.186,402.934h-8.373c-0.32,0.658-0.48,1.324-0.48,2c0,0.143,0.026,0.364,0.08,0.667h-8.747
				c-0.729,0-1.138,0.151-1.227,0.453c-0.089,0.285,0.169,0.622,0.773,1.014l4.747,3.866h18.08l4.667-3.866
				c0.604-0.392,0.871-0.73,0.8-1.014c-0.054-0.302-0.443-0.453-1.173-0.453h-8.747c0.055-0.303,0.079-0.524,0.079-0.667
				C440.665,404.258,440.506,403.592,440.186,402.934L440.186,402.934z M445.334,413.601h-18.667c-0.374,0-0.694,0.132-0.961,0.399
				c-0.248,0.249-0.373,0.561-0.373,0.934c0,0.373,0.124,0.693,0.373,0.96c0.267,0.248,0.587,0.373,0.96,0.373h4v5.334l-7.333,5.332
				h25.333l-7.332-5.332v-5.334h4c0.373,0,0.684-0.125,0.934-0.373c0.266-0.268,0.398-0.587,0.398-0.96
				c0-0.373-0.132-0.685-0.398-0.934C446.018,413.734,445.707,413.601,445.334,413.601L445.334,413.601z M450.666,429.601h-29.333
				c-0.373,0-0.693,0.132-0.959,0.398c-0.249,0.25-0.374,0.562-0.374,0.934v1.334h32v-1.334c0-0.372-0.132-0.684-0.4-0.934
				C451.352,429.734,451.04,429.601,450.666,429.601L450.666,429.601z"/>
		</g>
	</g>
</g>
</svg>
