<?xml version="1.0" encoding="utf-8"?>
<!-- Generator: Adobe Illustrator 16.0.4, SVG Export Plug-In . SVG Version: 6.00 Build 0)  -->
<!DOCTYPE svg PUBLIC "-//W3C//DTD SVG 1.1//EN" "http://www.w3.org/Graphics/SVG/1.1/DTD/svg11.dtd">
<svg version="1.1"
	 id="svg2" xmlns:dc="http://purl.org/dc/elements/1.1/" xmlns:cc="http://creativecommons.org/ns#" xmlns:rdf="http://www.w3.org/1999/02/22-rdf-syntax-ns#" xmlns:svg="http://www.w3.org/2000/svg"
	 xmlns="http://www.w3.org/2000/svg" xmlns:xlink="http://www.w3.org/1999/xlink" x="0px" y="0px" width="32px" height="34.666px"
	 viewBox="0 0 32 34.666" enable-background="new 0 0 32 34.666" xml:space="preserve">
<g id="layer1" transform="translate(-420,-397.60029)">
	<g id="text3336">
		<g id="path3371">
			<path fill="#fafafa" d="M420.35,431.918v-0.984c0-0.278,0.089-0.503,0.272-0.687c0.198-0.199,0.431-0.296,0.711-0.296h29.333
				c0.275,0,0.497,0.095,0.678,0.288c0.215,0.2,0.307,0.416,0.307,0.694v0.984H420.35z M424.406,426.584l3.653-2.666h-1.393
				c-0.283,0-0.519-0.092-0.722-0.28c-0.17-0.184-0.261-0.42-0.261-0.704c0-0.279,0.088-0.504,0.271-0.687
				c0.199-0.198,0.432-0.296,0.713-0.296h18.667c0.278,0,0.493,0.092,0.679,0.289c0.212,0.199,0.304,0.415,0.304,0.693
				c0,0.279-0.098,0.513-0.297,0.714c-0.183,0.182-0.407,0.271-0.686,0.271h-1.394l3.652,2.666H424.406z M428.145,418.584
				l-5.128-5.128v-12.839h4.633v5.334h6.033v-5.334h4.633v5.334h6.033v-5.334h4.635v12.839l-5.129,5.127H428.145z"/>
			<path d="M448.634,400.967v12.344l-4.924,4.922h-15.42l-4.923-4.922v-12.344h3.933v4.634v0.7h0.7h5.333h0.7v-0.7v-4.634h3.933
				v4.634v0.7h0.7H444h0.7v-0.7v-4.634H448.634 M445.334,422.301c0.18,0,0.307,0.053,0.455,0.209
				c0.124,0.116,0.177,0.243,0.177,0.423c0,0.188-0.06,0.332-0.191,0.464c-0.118,0.118-0.254,0.17-0.44,0.17h-0.32h-2.146
				l1.733,1.266l1.919,1.4h-21.04l1.919-1.4l1.734-1.266h-2.146h-0.32c-0.187,0-0.332-0.052-0.465-0.169
				c-0.116-0.132-0.168-0.277-0.168-0.465c0-0.187,0.052-0.322,0.167-0.438c0.134-0.134,0.278-0.193,0.466-0.193H445.334
				 M450.666,430.301c0.181,0,0.307,0.053,0.457,0.211c0.124,0.115,0.177,0.241,0.177,0.421v0.634h-30.6v-0.634
				c0-0.186,0.052-0.321,0.169-0.439c0.133-0.133,0.276-0.192,0.463-0.192H450.666 M449.334,400.267H444v5.334h-5.334v-5.334h-5.333
				v5.334H428v-5.334h-5.333v13.334l5.333,5.333h16l5.334-5.332V400.267L449.334,400.267z M445.334,421.601h-18.667
				c-0.374,0-0.694,0.132-0.961,0.398c-0.249,0.25-0.373,0.562-0.373,0.934c0,0.373,0.124,0.693,0.373,0.961
				c0.267,0.248,0.587,0.373,0.96,0.373h0.32l-3.653,2.666h25.333l-3.652-2.666h0.32c0.373,0,0.684-0.125,0.934-0.373
				c0.266-0.268,0.398-0.588,0.398-0.961c0-0.372-0.132-0.684-0.398-0.934C446.018,421.734,445.707,421.601,445.334,421.601
				L445.334,421.601z M450.666,429.601h-29.333c-0.373,0-0.693,0.132-0.959,0.398c-0.249,0.25-0.374,0.562-0.374,0.934v1.334h32
				v-1.334c0-0.372-0.132-0.684-0.4-0.934C451.352,429.734,451.04,429.601,450.666,429.601L450.666,429.601z"/>
		</g>
	</g>
</g>
</svg>
