<?xml version="1.0" encoding="utf-8"?>
<!-- Generator: Adobe Illustrator 16.0.4, SVG Export Plug-In . SVG Version: 6.00 Build 0)  -->
<!DOCTYPE svg PUBLIC "-//W3C//DTD SVG 1.1//EN" "http://www.w3.org/Graphics/SVG/1.1/DTD/svg11.dtd">
<svg version="1.1"
	 id="svg2" xmlns:dc="http://purl.org/dc/elements/1.1/" xmlns:cc="http://creativecommons.org/ns#" xmlns:rdf="http://www.w3.org/1999/02/22-rdf-syntax-ns#" xmlns:svg="http://www.w3.org/2000/svg"
	 xmlns="http://www.w3.org/2000/svg" xmlns:xlink="http://www.w3.org/1999/xlink" x="0px" y="0px" width="32px" height="34.666px"
	 viewBox="0 0 32 34.666" enable-background="new 0 0 32 34.666" xml:space="preserve">
<g id="layer1" transform="translate(-420,-397.60029)">
	<g id="text3336">
		<g id="path3336">
			<path fill="#FF0000" d="M420.35,431.918v-0.984c0-0.278,0.089-0.503,0.272-0.687c0.198-0.199,0.431-0.296,0.711-0.296h29.333
				c0.275,0,0.497,0.095,0.678,0.288c0.215,0.2,0.307,0.416,0.307,0.694v0.984H420.35z M424.406,426.584l2.786-2.034
				c0.122-0.089,0.173-0.247,0.126-0.391c-0.047-0.145-0.181-0.241-0.333-0.241h-0.32c-0.283,0-0.519-0.092-0.722-0.28
				c-0.17-0.184-0.261-0.42-0.261-0.704c0-0.278,0.089-0.503,0.271-0.688c0.198-0.197,0.432-0.295,0.712-0.295h18.667
				c0.278,0,0.493,0.092,0.679,0.289c0.212,0.199,0.304,0.415,0.304,0.693c0,0.279-0.098,0.513-0.297,0.715
				c-0.183,0.181-0.407,0.27-0.686,0.27h-0.348c-0.151,0-0.286,0.098-0.333,0.241c-0.047,0.145,0.005,0.303,0.128,0.392l2.805,2.033
				H424.406z M432.228,418.584c0.594-1.737,0.896-3.26,0.896-4.531c0-0.949,0.165-1.649,0.49-2.083
				c0.323-0.425,0.729-0.633,1.24-0.633h2.426c0.49,0,0.877,0.206,1.184,0.628c0.349,0.442,0.521,1.141,0.521,2.088
				c0,1.274,0.3,2.796,0.894,4.531H432.228z M436,410.29c-1.304,0-2.393-0.447-3.328-1.366c-0.915-0.933-1.362-2.021-1.362-3.324
				c0-0.926,0.23-1.998,0.686-3.192l3.465,3.441c0.068,0.067,0.157,0.102,0.247,0.102c0.09,0,0.179-0.034,0.248-0.103l2.958-2.96
				c0.137-0.137,0.137-0.358,0-0.495l-4.051-4.052c0.411-0.258,0.792-0.389,1.138-0.389c0.723,0,1.458,0.442,2.185,1.313
				c0.789,0.908,1.404,1.974,1.834,3.174c0.446,1.188,0.672,2.25,0.672,3.162c0,1.302-0.455,2.39-1.391,3.326
				C438.381,409.843,437.302,410.29,436,410.29z"/>
			<path d="M436,398.301c0.614,0,1.259,0.399,1.925,1.198c0.756,0.87,1.35,1.898,1.768,3.067c0.43,1.144,0.647,2.165,0.647,3.034
				c0,1.205-0.421,2.211-1.288,3.078c-0.85,0.849-1.848,1.262-3.052,1.262c-1.208,0-2.216-0.414-3.074-1.257
				c-0.852-0.868-1.266-1.877-1.266-3.083c0-0.751,0.161-1.608,0.479-2.557l3.075,3.053c0.136,0.136,0.315,0.204,0.493,0.204
				c0.179,0,0.358-0.068,0.495-0.205l2.959-2.96c0.273-0.273,0.273-0.717,0-0.99l-3.717-3.718
				C435.643,398.343,435.829,398.301,436,398.301 M437.279,411.687c0.38,0,0.657,0.149,0.917,0.507
				c0.286,0.362,0.438,1.005,0.438,1.859c0,1.197,0.256,2.599,0.76,4.18h-6.682c0.505-1.583,0.761-2.986,0.761-4.18
				c0-0.859,0.145-1.507,0.418-1.87c0.26-0.343,0.556-0.496,0.962-0.496h1.2H437.279 M445.334,422.301
				c0.18,0,0.307,0.053,0.455,0.209c0.124,0.116,0.177,0.243,0.177,0.423c0,0.188-0.06,0.332-0.191,0.464
				c-0.118,0.118-0.254,0.17-0.44,0.17h-0.348c-0.304,0-0.572,0.195-0.666,0.484s0.01,0.604,0.255,0.782l1.932,1.399h-21.027
				l1.919-1.4c0.245-0.179,0.347-0.494,0.253-0.782s-0.362-0.483-0.666-0.483h-0.32c-0.187,0-0.332-0.052-0.465-0.169
				c-0.116-0.132-0.168-0.277-0.168-0.465c0-0.187,0.052-0.322,0.167-0.438c0.134-0.134,0.278-0.193,0.466-0.193H445.334
				 M450.666,430.301c0.181,0,0.307,0.053,0.457,0.211c0.124,0.115,0.177,0.241,0.177,0.421v0.634h-30.6v-0.634
				c0-0.186,0.052-0.321,0.169-0.439c0.133-0.133,0.276-0.192,0.463-0.192H450.666 M436,397.601c-0.516,0-1.076,0.229-1.68,0.692
				l4.346,4.347l-2.959,2.96l-3.84-3.813c-0.605,1.44-0.907,2.71-0.907,3.813c0,1.386,0.489,2.577,1.467,3.573
				c0.995,0.978,2.186,1.467,3.573,1.467c1.387,0,2.568-0.489,3.547-1.467c0.996-0.996,1.493-2.186,1.493-3.573
				c0-0.96-0.231-2.053-0.692-3.28c-0.445-1.244-1.076-2.338-1.895-3.28C437.652,398.08,436.836,397.601,436,397.601L436,397.601z
				 M437.279,410.987h-1.226h-1.2c-0.623,0-1.129,0.257-1.52,0.773c-0.373,0.497-0.56,1.262-0.56,2.293
				c0,1.352-0.347,2.978-1.04,4.88h8.64c-0.693-1.902-1.039-3.528-1.039-4.88c0-1.031-0.195-1.796-0.588-2.293
				C438.373,411.245,437.884,410.987,437.279,410.987L437.279,410.987z M445.334,421.601h-18.667c-0.374,0-0.694,0.132-0.961,0.398
				c-0.248,0.25-0.373,0.562-0.373,0.934c0,0.373,0.124,0.693,0.373,0.961c0.267,0.248,0.587,0.373,0.96,0.373h0.32l-3.653,2.666
				h25.333l-3.68-2.666h0.348c0.373,0,0.684-0.125,0.934-0.373c0.266-0.268,0.398-0.588,0.398-0.961
				c0-0.372-0.132-0.684-0.398-0.934C446.018,421.734,445.707,421.601,445.334,421.601L445.334,421.601z M450.666,429.601h-29.333
				c-0.373,0-0.693,0.132-0.959,0.398c-0.249,0.25-0.374,0.562-0.374,0.934v1.334h32v-1.334c0-0.372-0.132-0.684-0.4-0.934
				C451.352,429.734,451.04,429.601,450.666,429.601L450.666,429.601z"/>
		</g>
	</g>
</g>
</svg>
