<?xml version="1.0" encoding="utf-8"?>
<!-- Generator: Adobe Illustrator 16.0.4, SVG Export Plug-In . SVG Version: 6.00 Build 0)  -->
<!DOCTYPE svg PUBLIC "-//W3C//DTD SVG 1.1//EN" "http://www.w3.org/Graphics/SVG/1.1/DTD/svg11.dtd">
<svg version="1.1"
	 id="svg2" xmlns:dc="http://purl.org/dc/elements/1.1/" xmlns:cc="http://creativecommons.org/ns#" xmlns:rdf="http://www.w3.org/1999/02/22-rdf-syntax-ns#" xmlns:svg="http://www.w3.org/2000/svg"
	 xmlns="http://www.w3.org/2000/svg" xmlns:xlink="http://www.w3.org/1999/xlink" x="0px" y="0px" width="32px" height="34.666px"
	 viewBox="0 0 32 34.666" enable-background="new 0 0 32 34.666" xml:space="preserve">
<g id="layer1" transform="translate(-420,-397.60029)">
	<g id="text3336">
		<g id="path3336">
			<path fill="#FF0000" d="M420.35,431.918v-0.984c0-0.278,0.089-0.503,0.272-0.687c0.198-0.199,0.431-0.296,0.711-0.296h29.333
				c0.275,0,0.497,0.095,0.678,0.288c0.215,0.2,0.307,0.416,0.307,0.694v0.984H420.35z M424.413,426.584l3.68-2.666h-1.427
				c-0.283,0-0.519-0.092-0.722-0.28c-0.17-0.184-0.261-0.42-0.261-0.704c0-0.278,0.089-0.503,0.271-0.688
				c0.198-0.197,0.432-0.295,0.712-0.295h18.667c0.278,0,0.493,0.092,0.679,0.289c0.212,0.199,0.304,0.415,0.304,0.693
				c0,0.279-0.098,0.513-0.297,0.715c-0.183,0.181-0.407,0.27-0.686,0.27h-1.394l3.652,2.666H424.413z M425.879,418.584
				c-0.659-0.865-1.337-2-2.018-3.378l-1.761-3.521c-0.443-0.871-0.482-1.58-0.121-2.167c0.378-0.606,1.04-0.901,2.022-0.901h9.683
				v-3.366h-2.667v-4.634h2.667v-2.666h4.633v2.666h2.667v4.634h-2.668v3.366H448c0.979,0,1.632,0.293,1.992,0.897
				c0.382,0.594,0.351,1.301-0.091,2.168l-1.762,3.522c-0.678,1.375-1.356,2.51-2.019,3.379H425.879z"/>
			<path d="M437.967,398.301v1.965v0.7h0.7h1.967v3.934h-1.968h-0.7v0.7v2.666v0.7h0.7H448c1.257,0,1.585,0.547,1.704,0.746
				c0.111,0.173,0.45,0.7-0.117,1.815l-1.762,3.523c-0.632,1.281-1.263,2.35-1.879,3.182h-19.893
				c-0.613-0.828-1.244-1.897-1.881-3.185l-1.762-3.524c-0.568-1.117-0.241-1.648-0.136-1.819c0.31-0.497,0.875-0.738,1.726-0.738
				h9.333h0.7v-0.7v-2.666v-0.7h-0.7h-1.967v-3.934h1.967h0.7v-0.7v-1.965H437.967 M445.334,422.301c0.18,0,0.307,0.053,0.455,0.209
				c0.124,0.116,0.177,0.243,0.177,0.423c0,0.188-0.06,0.332-0.191,0.464c-0.118,0.118-0.254,0.17-0.44,0.17h-0.32h-2.146
				l1.733,1.266l1.919,1.4h-21.027l1.931-1.399l1.749-1.267h-2.16h-0.347c-0.187,0-0.332-0.052-0.465-0.169
				c-0.116-0.132-0.168-0.277-0.168-0.465c0-0.187,0.052-0.322,0.167-0.438c0.134-0.134,0.278-0.193,0.466-0.193H445.334
				 M450.666,430.301c0.181,0,0.307,0.053,0.457,0.211c0.124,0.115,0.177,0.241,0.177,0.421v0.634h-30.6v-0.634
				c0-0.186,0.052-0.321,0.169-0.439c0.133-0.133,0.276-0.192,0.463-0.192H450.666 M438.667,397.601h-5.333v2.666h-2.667v5.334
				h2.667v2.666h-9.333c-1.102,0-1.876,0.356-2.32,1.067c-0.427,0.694-0.392,1.528,0.106,2.507l1.76,3.52
				c0.729,1.475,1.449,2.667,2.16,3.572h20.586c0.711-0.905,1.432-2.096,2.16-3.572l1.76-3.52c0.498-0.979,0.525-1.814,0.08-2.507
				c-0.426-0.711-1.191-1.067-2.293-1.067h-9.334v-2.666h2.668v-5.334h-2.667h-0.001h0.001V397.601L438.667,397.601z
				 M445.334,421.601h-18.667c-0.374,0-0.694,0.132-0.961,0.398c-0.248,0.25-0.373,0.562-0.373,0.934
				c0,0.373,0.124,0.693,0.373,0.961c0.267,0.248,0.587,0.373,0.96,0.373h0.347l-3.68,2.666h25.333l-3.652-2.666h0.32
				c0.373,0,0.684-0.125,0.934-0.373c0.266-0.268,0.398-0.588,0.398-0.961c0-0.372-0.132-0.684-0.398-0.934
				C446.018,421.734,445.707,421.601,445.334,421.601L445.334,421.601z M450.666,429.601h-29.333c-0.373,0-0.693,0.132-0.959,0.398
				c-0.249,0.25-0.374,0.562-0.374,0.934v1.334h32v-1.334c0-0.372-0.132-0.684-0.4-0.934
				C451.352,429.734,451.04,429.601,450.666,429.601L450.666,429.601z"/>
		</g>
	</g>
</g>
</svg>
